{
    "__jsonqualname__": "rafcon.core.states.hierarchy_state.HierarchyState", 
    "data_flows": {}, 
    "description": null, 
    "income": {
        "__jsonqualname__": "rafcon.core.state_elements.logical_port.Income"
    }, 
    "input_data_ports": {}, 
    "name": "ThesisSM", 
    "outcomes": {
        "-2": {
            "__jsonqualname__": "rafcon.core.state_elements.logical_port.Outcome", 
            "name": "preempted", 
            "outcome_id": -2
        }, 
        "-1": {
            "__jsonqualname__": "rafcon.core.state_elements.logical_port.Outcome", 
            "name": "aborted", 
            "outcome_id": -1
        }, 
        "0": {
            "__jsonqualname__": "rafcon.core.state_elements.logical_port.Outcome", 
            "name": "Success", 
            "outcome_id": 0
        }
    }, 
    "output_data_ports": {}, 
    "scoped_variables": {}, 
    "state_id": "CDMJPK", 
    "transitions": {
        "1": {
            "__jsonqualname__": "rafcon.core.state_elements.transition.Transition", 
            "from_outcome": 0, 
            "from_state": "CKIWDE", 
            "to_outcome": null, 
            "to_state": "UMOICA", 
            "transition_id": 1
        }, 
        "2": {
            "__jsonqualname__": "rafcon.core.state_elements.transition.Transition", 
            "from_outcome": 0, 
            "from_state": "UMOICA", 
            "to_outcome": null, 
            "to_state": "ECAHCA", 
            "transition_id": 2
        }, 
        "3": {
            "__jsonqualname__": "rafcon.core.state_elements.transition.Transition", 
            "from_outcome": 0, 
            "from_state": "ECAHCA", 
            "to_outcome": null, 
            "to_state": "ECXRJU", 
            "transition_id": 3
        }, 
        "4": {
            "__jsonqualname__": "rafcon.core.state_elements.transition.Transition", 
            "from_outcome": null, 
            "from_state": null, 
            "to_outcome": null, 
            "to_state": "CKIWDE", 
            "transition_id": 4
        }, 
        "5": {
            "__jsonqualname__": "rafcon.core.state_elements.transition.Transition", 
            "from_outcome": 0, 
            "from_state": "ECXRJU", 
            "to_outcome": null, 
            "to_state": "GSWWSW", 
            "transition_id": 5
        }, 
        "6": {
            "__jsonqualname__": "rafcon.core.state_elements.transition.Transition", 
            "from_outcome": 0, 
            "from_state": "GSWWSW", 
            "to_outcome": null, 
            "to_state": "VGQPZC", 
            "transition_id": 6
        }, 
        "7": {
            "__jsonqualname__": "rafcon.core.state_elements.transition.Transition", 
            "from_outcome": 0, 
            "from_state": "VGQPZC", 
            "to_outcome": null, 
            "to_state": "FPIVZH", 
            "transition_id": 7
        }, 
        "8": {
            "__jsonqualname__": "rafcon.core.state_elements.transition.Transition", 
            "from_outcome": 0, 
            "from_state": "FPIVZH", 
            "to_outcome": 0, 
            "to_state": "CDMJPK", 
            "transition_id": 8
        }
    }
}