{
    "gui": {
        "editor_gaphas": {
            "name": {
                "rel_pos": {
                    "__jsonqualname__": "__builtin__.tuple", 
                    "items": [
                        4.304388205539059, 
                        3.0074454552125633
                    ]
                }, 
                "size": {
                    "__jsonqualname__": "__builtin__.tuple", 
                    "items": [
                        94.1579045412135, 
                        43.46032709619295
                    ]
                }
            }, 
            "rel_pos": {
                "__jsonqualname__": "__builtin__.tuple", 
                "items": [
                    0.0, 
                    0.0
                ]
            }, 
            "size": {
                "__jsonqualname__": "__builtin__.tuple", 
                "items": [
                    210.6715352262247, 
                    58.43446803076062
                ]
            }
        }
    }, 
    "income": {
        "gui": {
            "editor_gaphas": {
                "rel_pos": {
                    "__jsonqualname__": "__builtin__.tuple", 
                    "items": [
                        1.1686893606152124, 
                        46.53092507769562
                    ]
                }
            }
        }
    }, 
    "name": {
        "gui": {
            "editor_gaphas": {
                "rel_pos": {}, 
                "size": {}
            }
        }
    }, 
    "outcome-1": {
        "gui": {
            "editor_gaphas": {
                "rel_pos": {
                    "__jsonqualname__": "__builtin__.tuple", 
                    "items": [
                        209.5028458656095, 
                        24.8683337133106
                    ]
                }
            }
        }
    }, 
    "outcome-2": {
        "gui": {
            "editor_gaphas": {
                "rel_pos": {
                    "__jsonqualname__": "__builtin__.tuple", 
                    "items": [
                        209.5028458656095, 
                        18.790887096584832
                    ]
                }
            }
        }
    }, 
    "outcome0": {
        "gui": {
            "editor_gaphas": {
                "rel_pos": {
                    "__jsonqualname__": "__builtin__.tuple", 
                    "items": [
                        209.5028458656095, 
                        46.53092507769562
                    ]
                }
            }
        }
    }, 
    "transition1": {
        "gui": {
            "editor_gaphas": {
                "waypoints": []
            }
        }
    }, 
    "transition2": {
        "gui": {
            "editor_gaphas": {
                "waypoints": []
            }
        }
    }, 
    "transition3": {
        "gui": {
            "editor_gaphas": {
                "waypoints": {}
            }
        }
    }, 
    "transition4": {
        "gui": {
            "editor_gaphas": {
                "waypoints": []
            }
        }
    }, 
    "transition5": {
        "gui": {
            "editor_gaphas": {
                "waypoints": {}
            }
        }
    }, 
    "transition6": {
        "gui": {
            "editor_gaphas": {
                "waypoints": {}
            }
        }
    }, 
    "transition7": {
        "gui": {
            "editor_gaphas": {
                "waypoints": {}
            }
        }
    }, 
    "transition8": {
        "gui": {
            "editor_gaphas": {
                "waypoints": {}
            }
        }
    }
}