{
    "gui": {
        "editor_gaphas": {
            "name": {
                "rel_pos": {
                    "__jsonqualname__": "__builtin__.tuple", 
                    "items": [
                        0.6781245135554346, 
                        0.6781245135554386
                    ]
                }, 
                "size": {
                    "__jsonqualname__": "__builtin__.tuple", 
                    "items": [
                        10.454249158500062, 
                        5.2030013827782735
                    ]
                }
            }, 
            "rel_pos": {
                "__jsonqualname__": "__builtin__.tuple", 
                "items": [
                    18.900064092431634, 
                    32.499888960249045
                ]
            }, 
            "size": {
                "__jsonqualname__": "__builtin__.tuple", 
                "items": [
                    17.970500989789954, 
                    16.953112838885865
                ]
            }
        }, 
        "show_content": true
    }, 
    "income": {
        "gui": {
            "editor_gaphas": {
                "rel_pos": {
                    "__jsonqualname__": "__builtin__.tuple", 
                    "items": [
                        0.3390622567777173, 
                        13.804447110042537
                    ]
                }
            }
        }
    }, 
    "input1": {
        "gui": {
            "editor_gaphas": {
                "rel_pos": {}
            }
        }
    }, 
    "input_data_port1": {
        "gui": {
            "editor_gaphas": {
                "rel_pos": {
                    "__jsonqualname__": "__builtin__.tuple", 
                    "items": [
                        0.3390622567777173, 
                        0.3390622567777173
                    ]
                }
            }
        }
    }, 
    "name": {
        "gui": {
            "editor_gaphas": {
                "rel_pos": {}, 
                "size": {}
            }
        }
    }, 
    "outcome-1": {
        "gui": {
            "editor_gaphas": {
                "rel_pos": {
                    "__jsonqualname__": "__builtin__.tuple", 
                    "items": [
                        8.984120370585991, 
                        0.3390622567777173
                    ]
                }
            }
        }
    }, 
    "outcome-2": {
        "gui": {
            "editor_gaphas": {
                "rel_pos": {
                    "__jsonqualname__": "__builtin__.tuple", 
                    "items": [
                        5.717167508554722, 
                        0.3390622567777173
                    ]
                }
            }
        }
    }, 
    "outcome0": {
        "gui": {
            "editor_gaphas": {
                "rel_pos": {
                    "__jsonqualname__": "__builtin__.tuple", 
                    "items": [
                        17.63143873301224, 
                        3.7784490155284978
                    ]
                }
            }
        }
    }
}